{
    "Items": [
        {
            "bombValue": 0,
            "currency": 0,
            "powerup": 0,
            "cellType": 0
        },
        {
            "bombValue": 0,
            "currency": 0,
            "powerup": 0,
            "cellType": 0
        },
        {
            "bombValue": 0,
            "currency": 0,
            "powerup": 0,
            "cellType": 0
        },
        {
            "bombValue": 0,
            "currency": 0,
            "powerup": 0,
            "cellType": 0
        },
        {
            "bombValue": 0,
            "currency": 0,
            "powerup": 0,
            "cellType": 0
        },
        {
            "bombValue": 0,
            "currency": 0,
            "powerup": 0,
            "cellType": 0
        },
        {
            "bombValue": 0,
            "currency": 0,
            "powerup": 0,
            "cellType": 0
        },
        {
            "bombValue": 0,
            "currency": 0,
            "powerup": 0,
            "cellType": 0
        },
        {
            "bombValue": 0,
            "currency": 0,
            "powerup": 0,
            "cellType": 0
        },
        {
            "bombValue": 0,
            "currency": 0,
            "powerup": 0,
            "cellType": 0
        },
        {
            "bombValue": 0,
            "currency": 0,
            "powerup": 0,
            "cellType": 4
        },
        {
            "bombValue": 0,
            "currency": 0,
            "powerup": 0,
            "cellType": 0
        },
        {
            "bombValue": 0,
            "currency": 0,
            "powerup": 0,
            "cellType": 0
        },
        {
            "bombValue": 0,
            "currency": 0,
            "powerup": 0,
            "cellType": 0
        },
        {
            "bombValue": 0,
            "currency": 0,
            "powerup": 0,
            "cellType": 0
        },
        {
            "bombValue": 0,
            "currency": 0,
            "powerup": 0,
            "cellType": 0
        },
        {
            "bombValue": 0,
            "currency": 0,
            "powerup": 0,
            "cellType": 0
        },
        {
            "bombValue": 0,
            "currency": 0,
            "powerup": 0,
            "cellType": 4
        },
        {
            "bombValue": 0,
            "currency": 0,
            "powerup": 0,
            "cellType": 0
        },
        {
            "bombValue": 0,
            "currency": 0,
            "powerup": 0,
            "cellType": 0
        },
        {
            "bombValue": 0,
            "currency": 0,
            "powerup": 0,
            "cellType": 0
        },
        {
            "bombValue": 0,
            "currency": 0,
            "powerup": 0,
            "cellType": 0
        },
        {
            "bombValue": 0,
            "currency": 0,
            "powerup": 0,
            "cellType": 0
        },
        {
            "bombValue": 0,
            "currency": 0,
            "powerup": 0,
            "cellType": 0
        },
        {
            "bombValue": 0,
            "currency": 0,
            "powerup": 0,
            "cellType": 4
        },
        {
            "bombValue": 0,
            "currency": 0,
            "powerup": 0,
            "cellType": 0
        },
        {
            "bombValue": 0,
            "currency": 0,
            "powerup": 0,
            "cellType": 0
        },
        {
            "bombValue": 0,
            "currency": 0,
            "powerup": 0,
            "cellType": 0
        },
        {
            "bombValue": 0,
            "currency": 0,
            "powerup": 0,
            "cellType": 0
        },
        {
            "bombValue": 0,
            "currency": 0,
            "powerup": 0,
            "cellType": 0
        },
        {
            "bombValue": 0,
            "currency": 0,
            "powerup": 0,
            "cellType": 0
        },
        {
            "bombValue": 0,
            "currency": 0,
            "powerup": 0,
            "cellType": 4
        },
        {
            "bombValue": 0,
            "currency": 0,
            "powerup": 0,
            "cellType": 0
        },
        {
            "bombValue": 0,
            "currency": 0,
            "powerup": 0,
            "cellType": 0
        },
        {
            "bombValue": 0,
            "currency": 0,
            "powerup": 0,
            "cellType": 0
        },
        {
            "bombValue": 0,
            "currency": 0,
            "powerup": 0,
            "cellType": 0
        },
        {
            "bombValue": 0,
            "currency": 0,
            "powerup": 0,
            "cellType": 0
        },
        {
            "bombValue": 0,
            "currency": 0,
            "powerup": 0,
            "cellType": 0
        },
        {
            "bombValue": 0,
            "currency": 0,
            "powerup": 0,
            "cellType": 4
        },
        {
            "bombValue": 0,
            "currency": 0,
            "powerup": 0,
            "cellType": 0
        },
        {
            "bombValue": 0,
            "currency": 0,
            "powerup": 0,
            "cellType": 0
        },
        {
            "bombValue": 0,
            "currency": 0,
            "powerup": 0,
            "cellType": 0
        },
        {
            "bombValue": 0,
            "currency": 0,
            "powerup": 0,
            "cellType": 0
        },
        {
            "bombValue": 0,
            "currency": 0,
            "powerup": 0,
            "cellType": 0
        },
        {
            "bombValue": 0,
            "currency": 0,
            "powerup": 0,
            "cellType": 0
        },
        {
            "bombValue": 10,
            "currency": 0,
            "powerup": 0,
            "cellType": 1
        },
        {
            "bombValue": 0,
            "currency": 0,
            "powerup": 0,
            "cellType": 0
        },
        {
            "bombValue": 0,
            "currency": 0,
            "powerup": 0,
            "cellType": 0
        },
        {
            "bombValue": 0,
            "currency": 0,
            "powerup": 0,
            "cellType": 0
        },
        {
            "bombValue": 0,
            "currency": 0,
            "powerup": 0,
            "cellType": 0
        },
        {
            "bombValue": 0,
            "currency": 0,
            "powerup": 0,
            "cellType": 0
        },
        {
            "bombValue": 11,
            "currency": 0,
            "powerup": 0,
            "cellType": 1
        },
        {
            "bombValue": 10,
            "currency": 0,
            "powerup": 0,
            "cellType": 6
        },
        {
            "bombValue": 11,
            "currency": 0,
            "powerup": 0,
            "cellType": 1
        },
        {
            "bombValue": 0,
            "currency": 0,
            "powerup": 0,
            "cellType": 0
        },
        {
            "bombValue": 0,
            "currency": 0,
            "powerup": 0,
            "cellType": 0
        },
        {
            "bombValue": 12,
            "currency": 0,
            "powerup": 0,
            "cellType": 1
        },
        {
            "bombValue": 12,
            "currency": 0,
            "powerup": 0,
            "cellType": 1
        },
        {
            "bombValue": 0,
            "currency": 0,
            "powerup": 0,
            "cellType": 4
        },
        {
            "bombValue": 0,
            "currency": 0,
            "powerup": 4,
            "cellType": 2
        },
        {
            "bombValue": 0,
            "currency": 0,
            "powerup": 0,
            "cellType": 4
        },
        {
            "bombValue": 12,
            "currency": 0,
            "powerup": 0,
            "cellType": 1
        },
        {
            "bombValue": 12,
            "currency": 0,
            "powerup": 0,
            "cellType": 1
        },
        {
            "bombValue": 13,
            "currency": 0,
            "powerup": 0,
            "cellType": 1
        },
        {
            "bombValue": 13,
            "currency": 0,
            "powerup": 0,
            "cellType": 1
        },
        {
            "bombValue": 0,
            "currency": 0,
            "powerup": 0,
            "cellType": 4
        },
        {
            "bombValue": 0,
            "currency": 0,
            "powerup": 0,
            "cellType": 4
        },
        {
            "bombValue": 0,
            "currency": 0,
            "powerup": 0,
            "cellType": 4
        },
        {
            "bombValue": 13,
            "currency": 0,
            "powerup": 0,
            "cellType": 1
        },
        {
            "bombValue": 13,
            "currency": 0,
            "powerup": 0,
            "cellType": 1
        },
        {
            "bombValue": 14,
            "currency": 0,
            "powerup": 0,
            "cellType": 1
        },
        {
            "bombValue": 14,
            "currency": 0,
            "powerup": 0,
            "cellType": 1
        },
        {
            "bombValue": 0,
            "currency": 0,
            "powerup": 0,
            "cellType": 4
        },
        {
            "bombValue": 0,
            "currency": 0,
            "powerup": 0,
            "cellType": 4
        },
        {
            "bombValue": 0,
            "currency": 0,
            "powerup": 0,
            "cellType": 4
        },
        {
            "bombValue": 14,
            "currency": 0,
            "powerup": 0,
            "cellType": 1
        },
        {
            "bombValue": 14,
            "currency": 0,
            "powerup": 0,
            "cellType": 1
        },
        {
            "bombValue": 15,
            "currency": 0,
            "powerup": 0,
            "cellType": 1
        },
        {
            "bombValue": 15,
            "currency": 0,
            "powerup": 0,
            "cellType": 1
        },
        {
            "bombValue": 0,
            "currency": 0,
            "powerup": 0,
            "cellType": 4
        },
        {
            "bombValue": 0,
            "currency": 0,
            "powerup": 4,
            "cellType": 2
        },
        {
            "bombValue": 0,
            "currency": 0,
            "powerup": 0,
            "cellType": 4
        },
        {
            "bombValue": 15,
            "currency": 0,
            "powerup": 0,
            "cellType": 1
        },
        {
            "bombValue": 15,
            "currency": 0,
            "powerup": 0,
            "cellType": 1
        },
        {
            "bombValue": 16,
            "currency": 0,
            "powerup": 0,
            "cellType": 1
        },
        {
            "bombValue": 16,
            "currency": 0,
            "powerup": 0,
            "cellType": 1
        },
        {
            "bombValue": 0,
            "currency": 0,
            "powerup": 0,
            "cellType": 4
        },
        {
            "bombValue": 0,
            "currency": 0,
            "powerup": 0,
            "cellType": 4
        },
        {
            "bombValue": 0,
            "currency": 0,
            "powerup": 0,
            "cellType": 4
        },
        {
            "bombValue": 16,
            "currency": 0,
            "powerup": 0,
            "cellType": 1
        },
        {
            "bombValue": 16,
            "currency": 0,
            "powerup": 0,
            "cellType": 1
        },
        {
            "bombValue": 17,
            "currency": 0,
            "powerup": 0,
            "cellType": 1
        },
        {
            "bombValue": 17,
            "currency": 0,
            "powerup": 0,
            "cellType": 1
        },
        {
            "bombValue": 0,
            "currency": 0,
            "powerup": 0,
            "cellType": 0
        },
        {
            "bombValue": 0,
            "currency": 0,
            "powerup": 0,
            "cellType": 4
        },
        {
            "bombValue": 0,
            "currency": 0,
            "powerup": 0,
            "cellType": 0
        },
        {
            "bombValue": 17,
            "currency": 0,
            "powerup": 0,
            "cellType": 1
        },
        {
            "bombValue": 17,
            "currency": 0,
            "powerup": 0,
            "cellType": 1
        },
        {
            "bombValue": 18,
            "currency": 0,
            "powerup": 0,
            "cellType": 6
        },
        {
            "bombValue": 18,
            "currency": 0,
            "powerup": 0,
            "cellType": 6
        },
        {
            "bombValue": 0,
            "currency": 0,
            "powerup": 0,
            "cellType": 0
        },
        {
            "bombValue": 0,
            "currency": 0,
            "powerup": 0,
            "cellType": 4
        },
        {
            "bombValue": 0,
            "currency": 0,
            "powerup": 0,
            "cellType": 0
        },
        {
            "bombValue": 18,
            "currency": 0,
            "powerup": 0,
            "cellType": 6
        },
        {
            "bombValue": 18,
            "currency": 0,
            "powerup": 0,
            "cellType": 6
        },
        {
            "bombValue": 19,
            "currency": 0,
            "powerup": 0,
            "cellType": 1
        },
        {
            "bombValue": 19,
            "currency": 0,
            "powerup": 0,
            "cellType": 1
        },
        {
            "bombValue": 0,
            "currency": 0,
            "powerup": 0,
            "cellType": 0
        },
        {
            "bombValue": 0,
            "currency": 0,
            "powerup": 0,
            "cellType": 4
        },
        {
            "bombValue": 0,
            "currency": 0,
            "powerup": 0,
            "cellType": 0
        },
        {
            "bombValue": 19,
            "currency": 0,
            "powerup": 0,
            "cellType": 1
        },
        {
            "bombValue": 19,
            "currency": 0,
            "powerup": 0,
            "cellType": 1
        },
        {
            "bombValue": 0,
            "currency": 0,
            "powerup": 0,
            "cellType": 0
        },
        {
            "bombValue": 20,
            "currency": 0,
            "powerup": 0,
            "cellType": 6
        },
        {
            "bombValue": 20,
            "currency": 0,
            "powerup": 0,
            "cellType": 6
        },
        {
            "bombValue": 30,
            "currency": 0,
            "powerup": 0,
            "cellType": 5
        },
        {
            "bombValue": 20,
            "currency": 0,
            "powerup": 0,
            "cellType": 6
        },
        {
            "bombValue": 20,
            "currency": 0,
            "powerup": 0,
            "cellType": 6
        },
        {
            "bombValue": 20,
            "currency": 0,
            "powerup": 0,
            "cellType": 6
        },
        {
            "bombValue": 0,
            "currency": 0,
            "powerup": 0,
            "cellType": 0
        },
        {
            "bombValue": 0,
            "currency": 0,
            "powerup": 0,
            "cellType": 4
        },
        {
            "bombValue": 0,
            "currency": 0,
            "powerup": 0,
            "cellType": 0
        },
        {
            "bombValue": 0,
            "currency": 0,
            "powerup": 2,
            "cellType": 2
        },
        {
            "bombValue": 0,
            "currency": 0,
            "powerup": 0,
            "cellType": 0
        },
        {
            "bombValue": 0,
            "currency": 0,
            "powerup": 0,
            "cellType": 4
        },
        {
            "bombValue": 0,
            "currency": 0,
            "powerup": 0,
            "cellType": 0
        },
        {
            "bombValue": 22,
            "currency": 0,
            "powerup": 0,
            "cellType": 1
        },
        {
            "bombValue": 22,
            "currency": 0,
            "powerup": 0,
            "cellType": 1
        },
        {
            "bombValue": 22,
            "currency": 0,
            "powerup": 0,
            "cellType": 1
        },
        {
            "bombValue": 0,
            "currency": 0,
            "powerup": 0,
            "cellType": 4
        },
        {
            "bombValue": 22,
            "currency": 0,
            "powerup": 0,
            "cellType": 1
        },
        {
            "bombValue": 22,
            "currency": 0,
            "powerup": 0,
            "cellType": 1
        },
        {
            "bombValue": 22,
            "currency": 0,
            "powerup": 0,
            "cellType": 1
        },
        {
            "bombValue": 23,
            "currency": 0,
            "powerup": 0,
            "cellType": 1
        },
        {
            "bombValue": 0,
            "currency": 0,
            "powerup": 0,
            "cellType": 0
        },
        {
            "bombValue": 23,
            "currency": 0,
            "powerup": 0,
            "cellType": 1
        },
        {
            "bombValue": 40,
            "currency": 0,
            "powerup": 0,
            "cellType": 5
        },
        {
            "bombValue": 23,
            "currency": 0,
            "powerup": 0,
            "cellType": 1
        },
        {
            "bombValue": 0,
            "currency": 0,
            "powerup": 0,
            "cellType": 0
        },
        {
            "bombValue": 23,
            "currency": 0,
            "powerup": 0,
            "cellType": 1
        },
        {
            "bombValue": 0,
            "currency": 0,
            "powerup": 0,
            "cellType": 0
        },
        {
            "bombValue": 25,
            "currency": 0,
            "powerup": 0,
            "cellType": 6
        },
        {
            "bombValue": 0,
            "currency": 0,
            "powerup": 0,
            "cellType": 0
        },
        {
            "bombValue": 25,
            "currency": 0,
            "powerup": 0,
            "cellType": 6
        },
        {
            "bombValue": 0,
            "currency": 0,
            "powerup": 0,
            "cellType": 0
        },
        {
            "bombValue": 25,
            "currency": 0,
            "powerup": 0,
            "cellType": 6
        },
        {
            "bombValue": 0,
            "currency": 0,
            "powerup": 0,
            "cellType": 0
        },
        {
            "bombValue": 0,
            "currency": 0,
            "powerup": 0,
            "cellType": 0
        },
        {
            "bombValue": 0,
            "currency": 0,
            "powerup": 0,
            "cellType": 0
        },
        {
            "bombValue": 30,
            "currency": 0,
            "powerup": 0,
            "cellType": 1
        },
        {
            "bombValue": 30,
            "currency": 0,
            "powerup": 0,
            "cellType": 1
        },
        {
            "bombValue": 30,
            "currency": 0,
            "powerup": 0,
            "cellType": 1
        },
        {
            "bombValue": 0,
            "currency": 0,
            "powerup": 0,
            "cellType": 0
        },
        {
            "bombValue": 0,
            "currency": 0,
            "powerup": 0,
            "cellType": 0
        },
        {
            "bombValue": 40,
            "currency": 0,
            "powerup": 0,
            "cellType": 1
        },
        {
            "bombValue": 0,
            "currency": 0,
            "powerup": 0,
            "cellType": 0
        },
        {
            "bombValue": 0,
            "currency": 0,
            "powerup": 0,
            "cellType": 0
        },
        {
            "bombValue": 40,
            "currency": 0,
            "powerup": 0,
            "cellType": 1
        },
        {
            "bombValue": 0,
            "currency": 0,
            "powerup": 0,
            "cellType": 0
        },
        {
            "bombValue": 0,
            "currency": 0,
            "powerup": 0,
            "cellType": 0
        },
        {
            "bombValue": 40,
            "currency": 0,
            "powerup": 0,
            "cellType": 1
        },
        {
            "bombValue": 27,
            "currency": 0,
            "powerup": 0,
            "cellType": 1
        },
        {
            "bombValue": 27,
            "currency": 0,
            "powerup": 0,
            "cellType": 6
        },
        {
            "bombValue": 27,
            "currency": 0,
            "powerup": 0,
            "cellType": 1
        },
        {
            "bombValue": 0,
            "currency": 0,
            "powerup": 2,
            "cellType": 2
        },
        {
            "bombValue": 27,
            "currency": 0,
            "powerup": 0,
            "cellType": 1
        },
        {
            "bombValue": 27,
            "currency": 0,
            "powerup": 0,
            "cellType": 1
        },
        {
            "bombValue": 27,
            "currency": 0,
            "powerup": 0,
            "cellType": 1
        },
        {
            "bombValue": 28,
            "currency": 0,
            "powerup": 0,
            "cellType": 1
        },
        {
            "bombValue": 28,
            "currency": 0,
            "powerup": 0,
            "cellType": 1
        },
        {
            "bombValue": 28,
            "currency": 0,
            "powerup": 0,
            "cellType": 1
        },
        {
            "bombValue": 0,
            "currency": 0,
            "powerup": 0,
            "cellType": 0
        },
        {
            "bombValue": 28,
            "currency": 0,
            "powerup": 0,
            "cellType": 1
        },
        {
            "bombValue": 28,
            "currency": 0,
            "powerup": 0,
            "cellType": 6
        },
        {
            "bombValue": 28,
            "currency": 0,
            "powerup": 0,
            "cellType": 1
        },
        {
            "bombValue": 29,
            "currency": 0,
            "powerup": 0,
            "cellType": 1
        },
        {
            "bombValue": 29,
            "currency": 0,
            "powerup": 0,
            "cellType": 6
        },
        {
            "bombValue": 29,
            "currency": 0,
            "powerup": 0,
            "cellType": 1
        },
        {
            "bombValue": 0,
            "currency": 0,
            "powerup": 0,
            "cellType": 0
        },
        {
            "bombValue": 29,
            "currency": 0,
            "powerup": 0,
            "cellType": 1
        },
        {
            "bombValue": 29,
            "currency": 0,
            "powerup": 0,
            "cellType": 1
        },
        {
            "bombValue": 29,
            "currency": 0,
            "powerup": 0,
            "cellType": 1
        },
        {
            "bombValue": 30,
            "currency": 0,
            "powerup": 0,
            "cellType": 1
        },
        {
            "bombValue": 30,
            "currency": 0,
            "powerup": 0,
            "cellType": 1
        },
        {
            "bombValue": 30,
            "currency": 0,
            "powerup": 0,
            "cellType": 1
        },
        {
            "bombValue": 0,
            "currency": 0,
            "powerup": 0,
            "cellType": 0
        },
        {
            "bombValue": 30,
            "currency": 0,
            "powerup": 0,
            "cellType": 1
        },
        {
            "bombValue": 30,
            "currency": 0,
            "powerup": 0,
            "cellType": 6
        },
        {
            "bombValue": 30,
            "currency": 0,
            "powerup": 0,
            "cellType": 1
        },
        {
            "bombValue": 31,
            "currency": 0,
            "powerup": 0,
            "cellType": 1
        },
        {
            "bombValue": 31,
            "currency": 0,
            "powerup": 0,
            "cellType": 6
        },
        {
            "bombValue": 31,
            "currency": 0,
            "powerup": 0,
            "cellType": 1
        },
        {
            "bombValue": 0,
            "currency": 0,
            "powerup": 0,
            "cellType": 0
        },
        {
            "bombValue": 31,
            "currency": 0,
            "powerup": 0,
            "cellType": 1
        },
        {
            "bombValue": 31,
            "currency": 0,
            "powerup": 0,
            "cellType": 1
        },
        {
            "bombValue": 31,
            "currency": 0,
            "powerup": 0,
            "cellType": 1
        },
        {
            "bombValue": 32,
            "currency": 0,
            "powerup": 0,
            "cellType": 1
        },
        {
            "bombValue": 32,
            "currency": 0,
            "powerup": 0,
            "cellType": 1
        },
        {
            "bombValue": 32,
            "currency": 0,
            "powerup": 0,
            "cellType": 1
        },
        {
            "bombValue": 0,
            "currency": 0,
            "powerup": 0,
            "cellType": 0
        },
        {
            "bombValue": 32,
            "currency": 0,
            "powerup": 0,
            "cellType": 1
        },
        {
            "bombValue": 32,
            "currency": 0,
            "powerup": 0,
            "cellType": 1
        },
        {
            "bombValue": 32,
            "currency": 0,
            "powerup": 0,
            "cellType": 1
        },
        {
            "bombValue": 0,
            "currency": 0,
            "powerup": 0,
            "cellType": 0
        },
        {
            "bombValue": 0,
            "currency": 0,
            "powerup": 0,
            "cellType": 0
        },
        {
            "bombValue": 0,
            "currency": 0,
            "powerup": 0,
            "cellType": 0
        },
        {
            "bombValue": 0,
            "currency": 0,
            "powerup": 0,
            "cellType": 0
        },
        {
            "bombValue": 0,
            "currency": 0,
            "powerup": 0,
            "cellType": 0
        },
        {
            "bombValue": 0,
            "currency": 0,
            "powerup": 0,
            "cellType": 0
        },
        {
            "bombValue": 0,
            "currency": 0,
            "powerup": 0,
            "cellType": 0
        },
        {
            "bombValue": 0,
            "currency": 0,
            "powerup": 0,
            "cellType": 0
        },
        {
            "bombValue": 0,
            "currency": 0,
            "powerup": 0,
            "cellType": 0
        },
        {
            "bombValue": 0,
            "currency": 0,
            "powerup": 0,
            "cellType": 0
        },
        {
            "bombValue": 50,
            "currency": 0,
            "powerup": 0,
            "cellType": 5
        },
        {
            "bombValue": 0,
            "currency": 0,
            "powerup": 0,
            "cellType": 0
        },
        {
            "bombValue": 0,
            "currency": 0,
            "powerup": 0,
            "cellType": 0
        },
        {
            "bombValue": 0,
            "currency": 0,
            "powerup": 0,
            "cellType": 0
        },
        {
            "bombValue": 0,
            "currency": 0,
            "powerup": 0,
            "cellType": 0
        },
        {
            "bombValue": 0,
            "currency": 0,
            "powerup": 0,
            "cellType": 0
        },
        {
            "bombValue": 0,
            "currency": 0,
            "powerup": 0,
            "cellType": 0
        },
        {
            "bombValue": 0,
            "currency": 0,
            "powerup": 0,
            "cellType": 0
        },
        {
            "bombValue": 0,
            "currency": 0,
            "powerup": 0,
            "cellType": 0
        },
        {
            "bombValue": 0,
            "currency": 0,
            "powerup": 0,
            "cellType": 0
        },
        {
            "bombValue": 0,
            "currency": 0,
            "powerup": 0,
            "cellType": 0
        },
        {
            "bombValue": 0,
            "currency": 0,
            "powerup": 0,
            "cellType": 0
        },
        {
            "bombValue": 0,
            "currency": 0,
            "powerup": 0,
            "cellType": 0
        },
        {
            "bombValue": 0,
            "currency": 0,
            "powerup": 0,
            "cellType": 0
        },
        {
            "bombValue": 0,
            "currency": 0,
            "powerup": 0,
            "cellType": 0
        },
        {
            "bombValue": 0,
            "currency": 0,
            "powerup": 0,
            "cellType": 0
        },
        {
            "bombValue": 0,
            "currency": 0,
            "powerup": 0,
            "cellType": 0
        },
        {
            "bombValue": 0,
            "currency": 0,
            "powerup": 0,
            "cellType": 0
        },
        {
            "bombValue": 0,
            "currency": 0,
            "powerup": 0,
            "cellType": 0
        },
        {
            "bombValue": 0,
            "currency": 0,
            "powerup": 0,
            "cellType": 0
        },
        {
            "bombValue": 0,
            "currency": 0,
            "powerup": 0,
            "cellType": 0
        },
        {
            "bombValue": 0,
            "currency": 0,
            "powerup": 0,
            "cellType": 0
        },
        {
            "bombValue": 0,
            "currency": 0,
            "powerup": 0,
            "cellType": 0
        },
        {
            "bombValue": 0,
            "currency": 0,
            "powerup": 0,
            "cellType": 0
        },
        {
            "bombValue": 0,
            "currency": 0,
            "powerup": 0,
            "cellType": 0
        },
        {
            "bombValue": 0,
            "currency": 0,
            "powerup": 0,
            "cellType": 0
        },
        {
            "bombValue": 0,
            "currency": 0,
            "powerup": 0,
            "cellType": 0
        },
        {
            "bombValue": 0,
            "currency": 0,
            "powerup": 0,
            "cellType": 0
        },
        {
            "bombValue": 0,
            "currency": 0,
            "powerup": 0,
            "cellType": 0
        },
        {
            "bombValue": 0,
            "currency": 0,
            "powerup": 0,
            "cellType": 0
        },
        {
            "bombValue": 0,
            "currency": 0,
            "powerup": 0,
            "cellType": 0
        },
        {
            "bombValue": 0,
            "currency": 0,
            "powerup": 0,
            "cellType": 0
        },
        {
            "bombValue": 0,
            "currency": 0,
            "powerup": 0,
            "cellType": 0
        },
        {
            "bombValue": 0,
            "currency": 0,
            "powerup": 0,
            "cellType": 0
        },
        {
            "bombValue": 0,
            "currency": 0,
            "powerup": 0,
            "cellType": 0
        },
        {
            "bombValue": 0,
            "currency": 0,
            "powerup": 0,
            "cellType": 0
        },
        {
            "bombValue": 0,
            "currency": 0,
            "powerup": 0,
            "cellType": 0
        },
        {
            "bombValue": 0,
            "currency": 0,
            "powerup": 0,
            "cellType": 0
        },
        {
            "bombValue": 0,
            "currency": 0,
            "powerup": 0,
            "cellType": 0
        },
        {
            "bombValue": 0,
            "currency": 0,
            "powerup": 0,
            "cellType": 0
        },
        {
            "bombValue": 0,
            "currency": 0,
            "powerup": 0,
            "cellType": 0
        },
        {
            "bombValue": 0,
            "currency": 0,
            "powerup": 0,
            "cellType": 0
        },
        {
            "bombValue": 0,
            "currency": 0,
            "powerup": 0,
            "cellType": 0
        },
        {
            "bombValue": 0,
            "currency": 0,
            "powerup": 0,
            "cellType": 0
        },
        {
            "bombValue": 0,
            "currency": 0,
            "powerup": 0,
            "cellType": 0
        },
        {
            "bombValue": 0,
            "currency": 0,
            "powerup": 0,
            "cellType": 0
        },
        {
            "bombValue": 0,
            "currency": 0,
            "powerup": 0,
            "cellType": 0
        },
        {
            "bombValue": 0,
            "currency": 0,
            "powerup": 0,
            "cellType": 0
        },
        {
            "bombValue": 0,
            "currency": 0,
            "powerup": 0,
            "cellType": 0
        },
        {
            "bombValue": 0,
            "currency": 0,
            "powerup": 0,
            "cellType": 0
        },
        {
            "bombValue": 0,
            "currency": 0,
            "powerup": 0,
            "cellType": 0
        },
        {
            "bombValue": 0,
            "currency": 0,
            "powerup": 0,
            "cellType": 0
        },
        {
            "bombValue": 0,
            "currency": 0,
            "powerup": 0,
            "cellType": 0
        },
        {
            "bombValue": 0,
            "currency": 0,
            "powerup": 0,
            "cellType": 0
        },
        {
            "bombValue": 0,
            "currency": 0,
            "powerup": 0,
            "cellType": 0
        },
        {
            "bombValue": 0,
            "currency": 0,
            "powerup": 0,
            "cellType": 0
        },
        {
            "bombValue": 0,
            "currency": 0,
            "powerup": 0,
            "cellType": 0
        },
        {
            "bombValue": 0,
            "currency": 0,
            "powerup": 0,
            "cellType": 0
        },
        {
            "bombValue": 0,
            "currency": 0,
            "powerup": 0,
            "cellType": 0
        },
        {
            "bombValue": 0,
            "currency": 0,
            "powerup": 0,
            "cellType": 0
        },
        {
            "bombValue": 0,
            "currency": 0,
            "powerup": 0,
            "cellType": 0
        },
        {
            "bombValue": 0,
            "currency": 0,
            "powerup": 0,
            "cellType": 0
        },
        {
            "bombValue": 0,
            "currency": 0,
            "powerup": 0,
            "cellType": 0
        },
        {
            "bombValue": 0,
            "currency": 0,
            "powerup": 0,
            "cellType": 0
        },
        {
            "bombValue": 0,
            "currency": 0,
            "powerup": 0,
            "cellType": 0
        },
        {
            "bombValue": 0,
            "currency": 0,
            "powerup": 0,
            "cellType": 0
        },
        {
            "bombValue": 0,
            "currency": 0,
            "powerup": 0,
            "cellType": 0
        },
        {
            "bombValue": 0,
            "currency": 0,
            "powerup": 0,
            "cellType": 0
        },
        {
            "bombValue": 0,
            "currency": 0,
            "powerup": 0,
            "cellType": 0
        },
        {
            "bombValue": 0,
            "currency": 0,
            "powerup": 0,
            "cellType": 0
        },
        {
            "bombValue": 0,
            "currency": 0,
            "powerup": 0,
            "cellType": 0
        },
        {
            "bombValue": 0,
            "currency": 0,
            "powerup": 0,
            "cellType": 0
        },
        {
            "bombValue": 0,
            "currency": 0,
            "powerup": 0,
            "cellType": 0
        },
        {
            "bombValue": 0,
            "currency": 0,
            "powerup": 0,
            "cellType": 0
        },
        {
            "bombValue": 0,
            "currency": 0,
            "powerup": 0,
            "cellType": 0
        },
        {
            "bombValue": 0,
            "currency": 0,
            "powerup": 0,
            "cellType": 0
        },
        {
            "bombValue": 0,
            "currency": 0,
            "powerup": 0,
            "cellType": 0
        },
        {
            "bombValue": 0,
            "currency": 0,
            "powerup": 0,
            "cellType": 0
        },
        {
            "bombValue": 0,
            "currency": 0,
            "powerup": 0,
            "cellType": 0
        },
        {
            "bombValue": 0,
            "currency": 0,
            "powerup": 0,
            "cellType": 0
        },
        {
            "bombValue": 0,
            "currency": 0,
            "powerup": 0,
            "cellType": 0
        },
        {
            "bombValue": 0,
            "currency": 0,
            "powerup": 0,
            "cellType": 0
        },
        {
            "bombValue": 0,
            "currency": 0,
            "powerup": 0,
            "cellType": 0
        },
        {
            "bombValue": 0,
            "currency": 0,
            "powerup": 0,
            "cellType": 0
        },
        {
            "bombValue": 0,
            "currency": 0,
            "powerup": 0,
            "cellType": 0
        },
        {
            "bombValue": 0,
            "currency": 0,
            "powerup": 0,
            "cellType": 0
        },
        {
            "bombValue": 0,
            "currency": 0,
            "powerup": 0,
            "cellType": 0
        },
        {
            "bombValue": 0,
            "currency": 0,
            "powerup": 0,
            "cellType": 0
        },
        {
            "bombValue": 0,
            "currency": 0,
            "powerup": 0,
            "cellType": 0
        },
        {
            "bombValue": 0,
            "currency": 0,
            "powerup": 0,
            "cellType": 0
        },
        {
            "bombValue": 0,
            "currency": 0,
            "powerup": 0,
            "cellType": 0
        },
        {
            "bombValue": 0,
            "currency": 0,
            "powerup": 0,
            "cellType": 0
        },
        {
            "bombValue": 0,
            "currency": 0,
            "powerup": 0,
            "cellType": 0
        },
        {
            "bombValue": 0,
            "currency": 0,
            "powerup": 0,
            "cellType": 0
        },
        {
            "bombValue": 0,
            "currency": 0,
            "powerup": 0,
            "cellType": 0
        },
        {
            "bombValue": 0,
            "currency": 0,
            "powerup": 0,
            "cellType": 0
        },
        {
            "bombValue": 0,
            "currency": 0,
            "powerup": 0,
            "cellType": 0
        },
        {
            "bombValue": 0,
            "currency": 0,
            "powerup": 0,
            "cellType": 0
        },
        {
            "bombValue": 0,
            "currency": 0,
            "powerup": 0,
            "cellType": 0
        },
        {
            "bombValue": 0,
            "currency": 0,
            "powerup": 0,
            "cellType": 0
        },
        {
            "bombValue": 0,
            "currency": 0,
            "powerup": 0,
            "cellType": 0
        },
        {
            "bombValue": 0,
            "currency": 0,
            "powerup": 0,
            "cellType": 0
        },
        {
            "bombValue": 0,
            "currency": 0,
            "powerup": 0,
            "cellType": 0
        },
        {
            "bombValue": 0,
            "currency": 0,
            "powerup": 0,
            "cellType": 0
        },
        {
            "bombValue": 0,
            "currency": 0,
            "powerup": 0,
            "cellType": 0
        },
        {
            "bombValue": 0,
            "currency": 0,
            "powerup": 0,
            "cellType": 0
        },
        {
            "bombValue": 0,
            "currency": 0,
            "powerup": 0,
            "cellType": 0
        },
        {
            "bombValue": 0,
            "currency": 0,
            "powerup": 0,
            "cellType": 0
        },
        {
            "bombValue": 0,
            "currency": 0,
            "powerup": 0,
            "cellType": 0
        },
        {
            "bombValue": 0,
            "currency": 0,
            "powerup": 0,
            "cellType": 0
        },
        {
            "bombValue": 0,
            "currency": 0,
            "powerup": 0,
            "cellType": 0
        },
        {
            "bombValue": 0,
            "currency": 0,
            "powerup": 0,
            "cellType": 0
        },
        {
            "bombValue": 0,
            "currency": 0,
            "powerup": 0,
            "cellType": 0
        },
        {
            "bombValue": 0,
            "currency": 0,
            "powerup": 0,
            "cellType": 0
        },
        {
            "bombValue": 0,
            "currency": 0,
            "powerup": 0,
            "cellType": 0
        },
        {
            "bombValue": 0,
            "currency": 0,
            "powerup": 0,
            "cellType": 0
        },
        {
            "bombValue": 0,
            "currency": 0,
            "powerup": 0,
            "cellType": 0
        },
        {
            "bombValue": 0,
            "currency": 0,
            "powerup": 0,
            "cellType": 0
        },
        {
            "bombValue": 0,
            "currency": 0,
            "powerup": 0,
            "cellType": 0
        },
        {
            "bombValue": 0,
            "currency": 0,
            "powerup": 0,
            "cellType": 0
        },
        {
            "bombValue": 0,
            "currency": 0,
            "powerup": 0,
            "cellType": 0
        },
        {
            "bombValue": 0,
            "currency": 0,
            "powerup": 0,
            "cellType": 0
        },
        {
            "bombValue": 0,
            "currency": 0,
            "powerup": 0,
            "cellType": 0
        },
        {
            "bombValue": 0,
            "currency": 0,
            "powerup": 0,
            "cellType": 0
        },
        {
            "bombValue": 0,
            "currency": 0,
            "powerup": 0,
            "cellType": 0
        },
        {
            "bombValue": 0,
            "currency": 0,
            "powerup": 0,
            "cellType": 0
        },
        {
            "bombValue": 0,
            "currency": 0,
            "powerup": 0,
            "cellType": 0
        },
        {
            "bombValue": 0,
            "currency": 0,
            "powerup": 0,
            "cellType": 0
        },
        {
            "bombValue": 0,
            "currency": 0,
            "powerup": 0,
            "cellType": 0
        },
        {
            "bombValue": 0,
            "currency": 0,
            "powerup": 0,
            "cellType": 0
        },
        {
            "bombValue": 0,
            "currency": 0,
            "powerup": 0,
            "cellType": 0
        },
        {
            "bombValue": 0,
            "currency": 0,
            "powerup": 0,
            "cellType": 0
        },
        {
            "bombValue": 0,
            "currency": 0,
            "powerup": 0,
            "cellType": 0
        },
        {
            "bombValue": 0,
            "currency": 0,
            "powerup": 0,
            "cellType": 0
        },
        {
            "bombValue": 0,
            "currency": 0,
            "powerup": 0,
            "cellType": 0
        },
        {
            "bombValue": 0,
            "currency": 0,
            "powerup": 0,
            "cellType": 0
        },
        {
            "bombValue": 0,
            "currency": 0,
            "powerup": 0,
            "cellType": 0
        }
    ]
}