{
    "Items": [
        {
            "bombValue": 0,
            "currency": 0,
            "powerup": 0,
            "cellType": 0
        },
        {
            "bombValue": 0,
            "currency": 0,
            "powerup": 0,
            "cellType": 0
        },
        {
            "bombValue": 0,
            "currency": 0,
            "powerup": 0,
            "cellType": 0
        },
        {
            "bombValue": 0,
            "currency": 0,
            "powerup": 0,
            "cellType": 0
        },
        {
            "bombValue": 0,
            "currency": 0,
            "powerup": 0,
            "cellType": 0
        },
        {
            "bombValue": 0,
            "currency": 0,
            "powerup": 0,
            "cellType": 0
        },
        {
            "bombValue": 0,
            "currency": 0,
            "powerup": 0,
            "cellType": 0
        },
        {
            "bombValue": 0,
            "currency": 0,
            "powerup": 0,
            "cellType": 0
        },
        {
            "bombValue": 0,
            "currency": 0,
            "powerup": 0,
            "cellType": 0
        },
        {
            "bombValue": 0,
            "currency": 0,
            "powerup": 0,
            "cellType": 0
        },
        {
            "bombValue": 0,
            "currency": 0,
            "powerup": 0,
            "cellType": 0
        },
        {
            "bombValue": 0,
            "currency": 0,
            "powerup": 0,
            "cellType": 0
        },
        {
            "bombValue": 0,
            "currency": 0,
            "powerup": 0,
            "cellType": 0
        },
        {
            "bombValue": 0,
            "currency": 0,
            "powerup": 0,
            "cellType": 0
        },
        {
            "bombValue": 0,
            "currency": 0,
            "powerup": 0,
            "cellType": 0
        },
        {
            "bombValue": 0,
            "currency": 0,
            "powerup": 0,
            "cellType": 0
        },
        {
            "bombValue": 0,
            "currency": 0,
            "powerup": 0,
            "cellType": 0
        },
        {
            "bombValue": 0,
            "currency": 0,
            "powerup": 0,
            "cellType": 0
        },
        {
            "bombValue": 0,
            "currency": 0,
            "powerup": 0,
            "cellType": 0
        },
        {
            "bombValue": 0,
            "currency": 0,
            "powerup": 0,
            "cellType": 0
        },
        {
            "bombValue": 0,
            "currency": 0,
            "powerup": 0,
            "cellType": 0
        },
        {
            "bombValue": 0,
            "currency": 0,
            "powerup": 0,
            "cellType": 0
        },
        {
            "bombValue": 0,
            "currency": 0,
            "powerup": 0,
            "cellType": 0
        },
        {
            "bombValue": 0,
            "currency": 0,
            "powerup": 0,
            "cellType": 0
        },
        {
            "bombValue": 0,
            "currency": 0,
            "powerup": 0,
            "cellType": 0
        },
        {
            "bombValue": 0,
            "currency": 0,
            "powerup": 0,
            "cellType": 0
        },
        {
            "bombValue": 0,
            "currency": 0,
            "powerup": 0,
            "cellType": 0
        },
        {
            "bombValue": 0,
            "currency": 0,
            "powerup": 0,
            "cellType": 0
        },
        {
            "bombValue": 0,
            "currency": 0,
            "powerup": 0,
            "cellType": 0
        },
        {
            "bombValue": 0,
            "currency": 0,
            "powerup": 0,
            "cellType": 0
        },
        {
            "bombValue": 0,
            "currency": 0,
            "powerup": 0,
            "cellType": 0
        },
        {
            "bombValue": 0,
            "currency": 0,
            "powerup": 0,
            "cellType": 0
        },
        {
            "bombValue": 0,
            "currency": 0,
            "powerup": 0,
            "cellType": 0
        },
        {
            "bombValue": 0,
            "currency": 0,
            "powerup": 0,
            "cellType": 0
        },
        {
            "bombValue": 0,
            "currency": 0,
            "powerup": 0,
            "cellType": 0
        },
        {
            "bombValue": 0,
            "currency": 0,
            "powerup": 0,
            "cellType": 0
        },
        {
            "bombValue": 0,
            "currency": 0,
            "powerup": 0,
            "cellType": 0
        },
        {
            "bombValue": 0,
            "currency": 0,
            "powerup": 0,
            "cellType": 0
        },
        {
            "bombValue": 0,
            "currency": 0,
            "powerup": 0,
            "cellType": 0
        },
        {
            "bombValue": 0,
            "currency": 0,
            "powerup": 0,
            "cellType": 0
        },
        {
            "bombValue": 0,
            "currency": 0,
            "powerup": 0,
            "cellType": 0
        },
        {
            "bombValue": 0,
            "currency": 0,
            "powerup": 0,
            "cellType": 0
        },
        {
            "bombValue": 0,
            "currency": 0,
            "powerup": 0,
            "cellType": 0
        },
        {
            "bombValue": 0,
            "currency": 0,
            "powerup": 0,
            "cellType": 0
        },
        {
            "bombValue": 0,
            "currency": 0,
            "powerup": 0,
            "cellType": 0
        },
        {
            "bombValue": 0,
            "currency": 0,
            "powerup": 0,
            "cellType": 0
        },
        {
            "bombValue": 0,
            "currency": 0,
            "powerup": 0,
            "cellType": 0
        },
        {
            "bombValue": 0,
            "currency": 0,
            "powerup": 0,
            "cellType": 0
        },
        {
            "bombValue": 0,
            "currency": 0,
            "powerup": 0,
            "cellType": 0
        },
        {
            "bombValue": 0,
            "currency": 0,
            "powerup": 0,
            "cellType": 0
        },
        {
            "bombValue": 0,
            "currency": 0,
            "powerup": 0,
            "cellType": 0
        },
        {
            "bombValue": 0,
            "currency": 0,
            "powerup": 0,
            "cellType": 0
        },
        {
            "bombValue": 0,
            "currency": 0,
            "powerup": 0,
            "cellType": 0
        },
        {
            "bombValue": 0,
            "currency": 0,
            "powerup": 0,
            "cellType": 0
        },
        {
            "bombValue": 0,
            "currency": 0,
            "powerup": 0,
            "cellType": 0
        },
        {
            "bombValue": 0,
            "currency": 0,
            "powerup": 0,
            "cellType": 0
        },
        {
            "bombValue": 0,
            "currency": 0,
            "powerup": 0,
            "cellType": 0
        },
        {
            "bombValue": 0,
            "currency": 0,
            "powerup": 0,
            "cellType": 0
        },
        {
            "bombValue": 0,
            "currency": 0,
            "powerup": 0,
            "cellType": 0
        },
        {
            "bombValue": 1,
            "currency": 0,
            "powerup": 0,
            "cellType": 1
        },
        {
            "bombValue": 0,
            "currency": 0,
            "powerup": 0,
            "cellType": 0
        },
        {
            "bombValue": 0,
            "currency": 0,
            "powerup": 0,
            "cellType": 0
        },
        {
            "bombValue": 0,
            "currency": 0,
            "powerup": 0,
            "cellType": 0
        },
        {
            "bombValue": 2,
            "currency": 0,
            "powerup": 0,
            "cellType": 1
        },
        {
            "bombValue": 0,
            "currency": 0,
            "powerup": 0,
            "cellType": 4
        },
        {
            "bombValue": 0,
            "currency": 0,
            "powerup": 0,
            "cellType": 0
        },
        {
            "bombValue": 0,
            "currency": 0,
            "powerup": 0,
            "cellType": 0
        },
        {
            "bombValue": 0,
            "currency": 0,
            "powerup": 0,
            "cellType": 0
        },
        {
            "bombValue": 0,
            "currency": 0,
            "powerup": 0,
            "cellType": 0
        },
        {
            "bombValue": 0,
            "currency": 0,
            "powerup": 0,
            "cellType": 0
        },
        {
            "bombValue": 1,
            "currency": 0,
            "powerup": 0,
            "cellType": 1
        },
        {
            "bombValue": 0,
            "currency": 0,
            "powerup": 0,
            "cellType": 0
        },
        {
            "bombValue": 3,
            "currency": 0,
            "powerup": 0,
            "cellType": 1
        },
        {
            "bombValue": 0,
            "currency": 0,
            "powerup": 0,
            "cellType": 0
        },
        {
            "bombValue": 0,
            "currency": 0,
            "powerup": 0,
            "cellType": 0
        },
        {
            "bombValue": 0,
            "currency": 0,
            "powerup": 0,
            "cellType": 0
        },
        {
            "bombValue": 0,
            "currency": 0,
            "powerup": 0,
            "cellType": 0
        },
        {
            "bombValue": 0,
            "currency": 0,
            "powerup": 0,
            "cellType": 0
        },
        {
            "bombValue": 0,
            "currency": 0,
            "powerup": 0,
            "cellType": 0
        },
        {
            "bombValue": 0,
            "currency": 0,
            "powerup": 0,
            "cellType": 0
        },
        {
            "bombValue": 2,
            "currency": 0,
            "powerup": 0,
            "cellType": 1
        },
        {
            "bombValue": 0,
            "currency": 0,
            "powerup": 0,
            "cellType": 0
        },
        {
            "bombValue": 0,
            "currency": 0,
            "powerup": 0,
            "cellType": 0
        },
        {
            "bombValue": 2,
            "currency": 0,
            "powerup": 0,
            "cellType": 1
        },
        {
            "bombValue": 0,
            "currency": 0,
            "powerup": 0,
            "cellType": 0
        },
        {
            "bombValue": 0,
            "currency": 0,
            "powerup": 0,
            "cellType": 0
        },
        {
            "bombValue": 0,
            "currency": 0,
            "powerup": 0,
            "cellType": 0
        },
        {
            "bombValue": 3,
            "currency": 0,
            "powerup": 0,
            "cellType": 1
        },
        {
            "bombValue": 0,
            "currency": 0,
            "powerup": 0,
            "cellType": 0
        },
        {
            "bombValue": 0,
            "currency": 0,
            "powerup": 0,
            "cellType": 4
        },
        {
            "bombValue": 3,
            "currency": 0,
            "powerup": 0,
            "cellType": 1
        },
        {
            "bombValue": 0,
            "currency": 0,
            "powerup": 0,
            "cellType": 0
        },
        {
            "bombValue": 0,
            "currency": 0,
            "powerup": 0,
            "cellType": 0
        },
        {
            "bombValue": 0,
            "currency": 0,
            "powerup": 0,
            "cellType": 0
        },
        {
            "bombValue": 4,
            "currency": 0,
            "powerup": 0,
            "cellType": 1
        },
        {
            "bombValue": 0,
            "currency": 0,
            "powerup": 0,
            "cellType": 0
        },
        {
            "bombValue": 0,
            "currency": 0,
            "powerup": 0,
            "cellType": 0
        },
        {
            "bombValue": 4,
            "currency": 0,
            "powerup": 0,
            "cellType": 1
        },
        {
            "bombValue": 0,
            "currency": 0,
            "powerup": 0,
            "cellType": 0
        },
        {
            "bombValue": 0,
            "currency": 0,
            "powerup": 0,
            "cellType": 0
        },
        {
            "bombValue": 4,
            "currency": 0,
            "powerup": 0,
            "cellType": 1
        },
        {
            "bombValue": 0,
            "currency": 0,
            "powerup": 0,
            "cellType": 4
        },
        {
            "bombValue": 0,
            "currency": 0,
            "powerup": 0,
            "cellType": 0
        },
        {
            "bombValue": 0,
            "currency": 0,
            "powerup": 0,
            "cellType": 0
        },
        {
            "bombValue": 4,
            "currency": 0,
            "powerup": 0,
            "cellType": 1
        },
        {
            "bombValue": 0,
            "currency": 0,
            "powerup": 0,
            "cellType": 0
        },
        {
            "bombValue": 0,
            "currency": 0,
            "powerup": 0,
            "cellType": 0
        },
        {
            "bombValue": 5,
            "currency": 0,
            "powerup": 0,
            "cellType": 1
        },
        {
            "bombValue": 0,
            "currency": 0,
            "powerup": 0,
            "cellType": 0
        },
        {
            "bombValue": 5,
            "currency": 0,
            "powerup": 0,
            "cellType": 1
        },
        {
            "bombValue": 5,
            "currency": 0,
            "powerup": 0,
            "cellType": 1
        },
        {
            "bombValue": 5,
            "currency": 0,
            "powerup": 0,
            "cellType": 1
        },
        {
            "bombValue": 0,
            "currency": 0,
            "powerup": 0,
            "cellType": 0
        },
        {
            "bombValue": 0,
            "currency": 0,
            "powerup": 0,
            "cellType": 0
        },
        {
            "bombValue": 6,
            "currency": 0,
            "powerup": 0,
            "cellType": 1
        },
        {
            "bombValue": 0,
            "currency": 0,
            "powerup": 0,
            "cellType": 0
        },
        {
            "bombValue": 0,
            "currency": 0,
            "powerup": 0,
            "cellType": 0
        },
        {
            "bombValue": 0,
            "currency": 0,
            "powerup": 0,
            "cellType": 0
        },
        {
            "bombValue": 0,
            "currency": 0,
            "powerup": 0,
            "cellType": 4
        },
        {
            "bombValue": 0,
            "currency": 0,
            "powerup": 0,
            "cellType": 0
        },
        {
            "bombValue": 0,
            "currency": 0,
            "powerup": 0,
            "cellType": 0
        },
        {
            "bombValue": 0,
            "currency": 0,
            "powerup": 0,
            "cellType": 0
        },
        {
            "bombValue": 6,
            "currency": 0,
            "powerup": 0,
            "cellType": 1
        },
        {
            "bombValue": 4,
            "currency": 0,
            "powerup": 0,
            "cellType": 1
        },
        {
            "bombValue": 6,
            "currency": 0,
            "powerup": 0,
            "cellType": 1
        },
        {
            "bombValue": 0,
            "currency": 0,
            "powerup": 0,
            "cellType": 0
        },
        {
            "bombValue": 0,
            "currency": 0,
            "powerup": 0,
            "cellType": 0
        },
        {
            "bombValue": 0,
            "currency": 0,
            "powerup": 0,
            "cellType": 0
        },
        {
            "bombValue": 0,
            "currency": 0,
            "powerup": 0,
            "cellType": 0
        },
        {
            "bombValue": 6,
            "currency": 0,
            "powerup": 0,
            "cellType": 1
        },
        {
            "bombValue": 0,
            "currency": 0,
            "powerup": 0,
            "cellType": 4
        },
        {
            "bombValue": 6,
            "currency": 0,
            "powerup": 0,
            "cellType": 1
        },
        {
            "bombValue": 0,
            "currency": 0,
            "powerup": 0,
            "cellType": 0
        },
        {
            "bombValue": 0,
            "currency": 0,
            "powerup": 0,
            "cellType": 0
        },
        {
            "bombValue": 6,
            "currency": 0,
            "powerup": 0,
            "cellType": 1
        },
        {
            "bombValue": 0,
            "currency": 0,
            "powerup": 0,
            "cellType": 0
        },
        {
            "bombValue": 12,
            "currency": 0,
            "powerup": 0,
            "cellType": 1
        },
        {
            "bombValue": 0,
            "currency": 0,
            "powerup": 0,
            "cellType": 4
        },
        {
            "bombValue": 6,
            "currency": 0,
            "powerup": 0,
            "cellType": 1
        },
        {
            "bombValue": 0,
            "currency": 0,
            "powerup": 0,
            "cellType": 0
        },
        {
            "bombValue": 0,
            "currency": 0,
            "powerup": 0,
            "cellType": 0
        },
        {
            "bombValue": 7,
            "currency": 0,
            "powerup": 0,
            "cellType": 1
        },
        {
            "bombValue": 0,
            "currency": 0,
            "powerup": 0,
            "cellType": 0
        },
        {
            "bombValue": 12,
            "currency": 0,
            "powerup": 0,
            "cellType": 1
        },
        {
            "bombValue": 0,
            "currency": 0,
            "powerup": 0,
            "cellType": 0
        },
        {
            "bombValue": 7,
            "currency": 0,
            "powerup": 0,
            "cellType": 1
        },
        {
            "bombValue": 0,
            "currency": 0,
            "powerup": 0,
            "cellType": 0
        },
        {
            "bombValue": 0,
            "currency": 0,
            "powerup": 0,
            "cellType": 0
        },
        {
            "bombValue": 7,
            "currency": 0,
            "powerup": 0,
            "cellType": 1
        },
        {
            "bombValue": 0,
            "currency": 0,
            "powerup": 0,
            "cellType": 4
        },
        {
            "bombValue": 12,
            "currency": 0,
            "powerup": 0,
            "cellType": 1
        },
        {
            "bombValue": 0,
            "currency": 0,
            "powerup": 0,
            "cellType": 0
        },
        {
            "bombValue": 7,
            "currency": 0,
            "powerup": 0,
            "cellType": 1
        },
        {
            "bombValue": 0,
            "currency": 0,
            "powerup": 0,
            "cellType": 0
        },
        {
            "bombValue": 0,
            "currency": 0,
            "powerup": 0,
            "cellType": 0
        },
        {
            "bombValue": 7,
            "currency": 0,
            "powerup": 0,
            "cellType": 1
        },
        {
            "bombValue": 0,
            "currency": 0,
            "powerup": 0,
            "cellType": 0
        },
        {
            "bombValue": 12,
            "currency": 0,
            "powerup": 0,
            "cellType": 1
        },
        {
            "bombValue": 0,
            "currency": 0,
            "powerup": 0,
            "cellType": 0
        },
        {
            "bombValue": 7,
            "currency": 0,
            "powerup": 0,
            "cellType": 1
        },
        {
            "bombValue": 0,
            "currency": 0,
            "powerup": 0,
            "cellType": 0
        },
        {
            "bombValue": 0,
            "currency": 0,
            "powerup": 0,
            "cellType": 0
        },
        {
            "bombValue": 8,
            "currency": 0,
            "powerup": 0,
            "cellType": 1
        },
        {
            "bombValue": 0,
            "currency": 0,
            "powerup": 0,
            "cellType": 0
        },
        {
            "bombValue": 8,
            "currency": 0,
            "powerup": 0,
            "cellType": 1
        },
        {
            "bombValue": 8,
            "currency": 0,
            "powerup": 0,
            "cellType": 1
        },
        {
            "bombValue": 8,
            "currency": 0,
            "powerup": 0,
            "cellType": 1
        },
        {
            "bombValue": 8,
            "currency": 0,
            "powerup": 0,
            "cellType": 1
        },
        {
            "bombValue": 9,
            "currency": 0,
            "powerup": 0,
            "cellType": 1
        },
        {
            "bombValue": 0,
            "currency": 0,
            "powerup": 0,
            "cellType": 4
        },
        {
            "bombValue": 0,
            "currency": 0,
            "powerup": 0,
            "cellType": 0
        },
        {
            "bombValue": 0,
            "currency": 0,
            "powerup": 0,
            "cellType": 3
        },
        {
            "bombValue": 9,
            "currency": 0,
            "powerup": 0,
            "cellType": 1
        },
        {
            "bombValue": 0,
            "currency": 0,
            "powerup": 0,
            "cellType": 0
        },
        {
            "bombValue": 0,
            "currency": 0,
            "powerup": 0,
            "cellType": 0
        },
        {
            "bombValue": 0,
            "currency": 0,
            "powerup": 0,
            "cellType": 0
        },
        {
            "bombValue": 9,
            "currency": 0,
            "powerup": 0,
            "cellType": 1
        },
        {
            "bombValue": 0,
            "currency": 0,
            "powerup": 0,
            "cellType": 3
        },
        {
            "bombValue": 0,
            "currency": 0,
            "powerup": 0,
            "cellType": 3
        },
        {
            "bombValue": 0,
            "currency": 0,
            "powerup": 0,
            "cellType": 3
        },
        {
            "bombValue": 0,
            "currency": 0,
            "powerup": 0,
            "cellType": 0
        },
        {
            "bombValue": 0,
            "currency": 0,
            "powerup": 0,
            "cellType": 0
        },
        {
            "bombValue": 0,
            "currency": 0,
            "powerup": 0,
            "cellType": 0
        },
        {
            "bombValue": 0,
            "currency": 0,
            "powerup": 0,
            "cellType": 0
        },
        {
            "bombValue": 9,
            "currency": 0,
            "powerup": 0,
            "cellType": 1
        },
        {
            "bombValue": 0,
            "currency": 0,
            "powerup": 0,
            "cellType": 3
        },
        {
            "bombValue": 9,
            "currency": 0,
            "powerup": 0,
            "cellType": 1
        },
        {
            "bombValue": 0,
            "currency": 0,
            "powerup": 0,
            "cellType": 0
        },
        {
            "bombValue": 0,
            "currency": 0,
            "powerup": 0,
            "cellType": 0
        },
        {
            "bombValue": 0,
            "currency": 0,
            "powerup": 0,
            "cellType": 0
        },
        {
            "bombValue": 0,
            "currency": 0,
            "powerup": 0,
            "cellType": 0
        },
        {
            "bombValue": 0,
            "currency": 0,
            "powerup": 0,
            "cellType": 0
        },
        {
            "bombValue": 9,
            "currency": 0,
            "powerup": 0,
            "cellType": 1
        },
        {
            "bombValue": 0,
            "currency": 0,
            "powerup": 0,
            "cellType": 0
        },
        {
            "bombValue": 0,
            "currency": 0,
            "powerup": 0,
            "cellType": 0
        },
        {
            "bombValue": 0,
            "currency": 0,
            "powerup": 0,
            "cellType": 0
        },
        {
            "bombValue": 0,
            "currency": 0,
            "powerup": 0,
            "cellType": 0
        },
        {
            "bombValue": 0,
            "currency": 0,
            "powerup": 0,
            "cellType": 0
        },
        {
            "bombValue": 0,
            "currency": 0,
            "powerup": 0,
            "cellType": 0
        },
        {
            "bombValue": 0,
            "currency": 0,
            "powerup": 0,
            "cellType": 0
        },
        {
            "bombValue": 0,
            "currency": 0,
            "powerup": 0,
            "cellType": 0
        },
        {
            "bombValue": 0,
            "currency": 0,
            "powerup": 0,
            "cellType": 0
        },
        {
            "bombValue": 0,
            "currency": 0,
            "powerup": 0,
            "cellType": 0
        },
        {
            "bombValue": 0,
            "currency": 0,
            "powerup": 0,
            "cellType": 0
        },
        {
            "bombValue": 0,
            "currency": 0,
            "powerup": 0,
            "cellType": 0
        },
        {
            "bombValue": 0,
            "currency": 0,
            "powerup": 0,
            "cellType": 0
        },
        {
            "bombValue": 0,
            "currency": 0,
            "powerup": 0,
            "cellType": 0
        },
        {
            "bombValue": 0,
            "currency": 0,
            "powerup": 0,
            "cellType": 0
        },
        {
            "bombValue": 0,
            "currency": 0,
            "powerup": 0,
            "cellType": 0
        },
        {
            "bombValue": 0,
            "currency": 0,
            "powerup": 0,
            "cellType": 0
        },
        {
            "bombValue": 0,
            "currency": 0,
            "powerup": 0,
            "cellType": 0
        },
        {
            "bombValue": 0,
            "currency": 0,
            "powerup": 0,
            "cellType": 0
        },
        {
            "bombValue": 0,
            "currency": 0,
            "powerup": 0,
            "cellType": 0
        },
        {
            "bombValue": 0,
            "currency": 0,
            "powerup": 0,
            "cellType": 0
        },
        {
            "bombValue": 0,
            "currency": 0,
            "powerup": 0,
            "cellType": 0
        },
        {
            "bombValue": 0,
            "currency": 0,
            "powerup": 0,
            "cellType": 0
        },
        {
            "bombValue": 0,
            "currency": 0,
            "powerup": 0,
            "cellType": 0
        },
        {
            "bombValue": 0,
            "currency": 0,
            "powerup": 0,
            "cellType": 0
        },
        {
            "bombValue": 0,
            "currency": 0,
            "powerup": 0,
            "cellType": 0
        },
        {
            "bombValue": 0,
            "currency": 0,
            "powerup": 0,
            "cellType": 0
        },
        {
            "bombValue": 0,
            "currency": 0,
            "powerup": 0,
            "cellType": 0
        },
        {
            "bombValue": 0,
            "currency": 0,
            "powerup": 0,
            "cellType": 0
        },
        {
            "bombValue": 0,
            "currency": 0,
            "powerup": 0,
            "cellType": 0
        },
        {
            "bombValue": 0,
            "currency": 0,
            "powerup": 0,
            "cellType": 0
        },
        {
            "bombValue": 0,
            "currency": 0,
            "powerup": 0,
            "cellType": 0
        },
        {
            "bombValue": 0,
            "currency": 0,
            "powerup": 0,
            "cellType": 0
        },
        {
            "bombValue": 0,
            "currency": 0,
            "powerup": 0,
            "cellType": 0
        },
        {
            "bombValue": 0,
            "currency": 0,
            "powerup": 0,
            "cellType": 0
        },
        {
            "bombValue": 0,
            "currency": 0,
            "powerup": 0,
            "cellType": 0
        },
        {
            "bombValue": 0,
            "currency": 0,
            "powerup": 0,
            "cellType": 0
        },
        {
            "bombValue": 0,
            "currency": 0,
            "powerup": 0,
            "cellType": 0
        },
        {
            "bombValue": 0,
            "currency": 0,
            "powerup": 0,
            "cellType": 0
        },
        {
            "bombValue": 0,
            "currency": 0,
            "powerup": 0,
            "cellType": 0
        },
        {
            "bombValue": 0,
            "currency": 0,
            "powerup": 0,
            "cellType": 0
        },
        {
            "bombValue": 0,
            "currency": 0,
            "powerup": 0,
            "cellType": 0
        },
        {
            "bombValue": 0,
            "currency": 0,
            "powerup": 0,
            "cellType": 0
        },
        {
            "bombValue": 0,
            "currency": 0,
            "powerup": 0,
            "cellType": 0
        },
        {
            "bombValue": 0,
            "currency": 0,
            "powerup": 0,
            "cellType": 0
        },
        {
            "bombValue": 0,
            "currency": 0,
            "powerup": 0,
            "cellType": 0
        },
        {
            "bombValue": 0,
            "currency": 0,
            "powerup": 0,
            "cellType": 0
        },
        {
            "bombValue": 0,
            "currency": 0,
            "powerup": 0,
            "cellType": 0
        },
        {
            "bombValue": 0,
            "currency": 0,
            "powerup": 0,
            "cellType": 0
        },
        {
            "bombValue": 0,
            "currency": 0,
            "powerup": 0,
            "cellType": 0
        },
        {
            "bombValue": 0,
            "currency": 0,
            "powerup": 0,
            "cellType": 0
        },
        {
            "bombValue": 0,
            "currency": 0,
            "powerup": 0,
            "cellType": 0
        },
        {
            "bombValue": 0,
            "currency": 0,
            "powerup": 0,
            "cellType": 0
        },
        {
            "bombValue": 0,
            "currency": 0,
            "powerup": 0,
            "cellType": 0
        },
        {
            "bombValue": 0,
            "currency": 0,
            "powerup": 0,
            "cellType": 0
        },
        {
            "bombValue": 0,
            "currency": 0,
            "powerup": 0,
            "cellType": 0
        },
        {
            "bombValue": 0,
            "currency": 0,
            "powerup": 0,
            "cellType": 0
        },
        {
            "bombValue": 0,
            "currency": 0,
            "powerup": 0,
            "cellType": 0
        },
        {
            "bombValue": 0,
            "currency": 0,
            "powerup": 0,
            "cellType": 0
        },
        {
            "bombValue": 0,
            "currency": 0,
            "powerup": 0,
            "cellType": 0
        },
        {
            "bombValue": 0,
            "currency": 0,
            "powerup": 0,
            "cellType": 0
        },
        {
            "bombValue": 0,
            "currency": 0,
            "powerup": 0,
            "cellType": 0
        },
        {
            "bombValue": 0,
            "currency": 0,
            "powerup": 0,
            "cellType": 0
        },
        {
            "bombValue": 0,
            "currency": 0,
            "powerup": 0,
            "cellType": 0
        },
        {
            "bombValue": 0,
            "currency": 0,
            "powerup": 0,
            "cellType": 0
        },
        {
            "bombValue": 0,
            "currency": 0,
            "powerup": 0,
            "cellType": 0
        },
        {
            "bombValue": 0,
            "currency": 0,
            "powerup": 0,
            "cellType": 0
        },
        {
            "bombValue": 0,
            "currency": 0,
            "powerup": 0,
            "cellType": 0
        },
        {
            "bombValue": 0,
            "currency": 0,
            "powerup": 0,
            "cellType": 0
        },
        {
            "bombValue": 0,
            "currency": 0,
            "powerup": 0,
            "cellType": 0
        },
        {
            "bombValue": 0,
            "currency": 0,
            "powerup": 0,
            "cellType": 0
        },
        {
            "bombValue": 0,
            "currency": 0,
            "powerup": 0,
            "cellType": 0
        },
        {
            "bombValue": 0,
            "currency": 0,
            "powerup": 0,
            "cellType": 0
        },
        {
            "bombValue": 0,
            "currency": 0,
            "powerup": 0,
            "cellType": 0
        },
        {
            "bombValue": 0,
            "currency": 0,
            "powerup": 0,
            "cellType": 0
        },
        {
            "bombValue": 0,
            "currency": 0,
            "powerup": 0,
            "cellType": 0
        },
        {
            "bombValue": 0,
            "currency": 0,
            "powerup": 0,
            "cellType": 0
        },
        {
            "bombValue": 0,
            "currency": 0,
            "powerup": 0,
            "cellType": 0
        },
        {
            "bombValue": 0,
            "currency": 0,
            "powerup": 0,
            "cellType": 0
        },
        {
            "bombValue": 0,
            "currency": 0,
            "powerup": 0,
            "cellType": 0
        },
        {
            "bombValue": 0,
            "currency": 0,
            "powerup": 0,
            "cellType": 0
        },
        {
            "bombValue": 0,
            "currency": 0,
            "powerup": 0,
            "cellType": 0
        },
        {
            "bombValue": 0,
            "currency": 0,
            "powerup": 0,
            "cellType": 0
        },
        {
            "bombValue": 0,
            "currency": 0,
            "powerup": 0,
            "cellType": 0
        },
        {
            "bombValue": 0,
            "currency": 0,
            "powerup": 0,
            "cellType": 0
        },
        {
            "bombValue": 0,
            "currency": 0,
            "powerup": 0,
            "cellType": 0
        },
        {
            "bombValue": 0,
            "currency": 0,
            "powerup": 0,
            "cellType": 0
        },
        {
            "bombValue": 0,
            "currency": 0,
            "powerup": 0,
            "cellType": 0
        },
        {
            "bombValue": 0,
            "currency": 0,
            "powerup": 0,
            "cellType": 0
        },
        {
            "bombValue": 0,
            "currency": 0,
            "powerup": 0,
            "cellType": 0
        },
        {
            "bombValue": 0,
            "currency": 0,
            "powerup": 0,
            "cellType": 0
        },
        {
            "bombValue": 0,
            "currency": 0,
            "powerup": 0,
            "cellType": 0
        },
        {
            "bombValue": 0,
            "currency": 0,
            "powerup": 0,
            "cellType": 0
        },
        {
            "bombValue": 0,
            "currency": 0,
            "powerup": 0,
            "cellType": 0
        },
        {
            "bombValue": 0,
            "currency": 0,
            "powerup": 0,
            "cellType": 0
        },
        {
            "bombValue": 0,
            "currency": 0,
            "powerup": 0,
            "cellType": 0
        },
        {
            "bombValue": 0,
            "currency": 0,
            "powerup": 0,
            "cellType": 0
        },
        {
            "bombValue": 0,
            "currency": 0,
            "powerup": 0,
            "cellType": 0
        },
        {
            "bombValue": 0,
            "currency": 0,
            "powerup": 0,
            "cellType": 0
        },
        {
            "bombValue": 0,
            "currency": 0,
            "powerup": 0,
            "cellType": 0
        },
        {
            "bombValue": 0,
            "currency": 0,
            "powerup": 0,
            "cellType": 0
        },
        {
            "bombValue": 0,
            "currency": 0,
            "powerup": 0,
            "cellType": 0
        },
        {
            "bombValue": 0,
            "currency": 0,
            "powerup": 0,
            "cellType": 0
        },
        {
            "bombValue": 0,
            "currency": 0,
            "powerup": 0,
            "cellType": 0
        },
        {
            "bombValue": 0,
            "currency": 0,
            "powerup": 0,
            "cellType": 0
        },
        {
            "bombValue": 0,
            "currency": 0,
            "powerup": 0,
            "cellType": 0
        },
        {
            "bombValue": 0,
            "currency": 0,
            "powerup": 0,
            "cellType": 0
        },
        {
            "bombValue": 0,
            "currency": 0,
            "powerup": 0,
            "cellType": 0
        },
        {
            "bombValue": 0,
            "currency": 0,
            "powerup": 0,
            "cellType": 0
        },
        {
            "bombValue": 0,
            "currency": 0,
            "powerup": 0,
            "cellType": 0
        },
        {
            "bombValue": 0,
            "currency": 0,
            "powerup": 0,
            "cellType": 0
        },
        {
            "bombValue": 0,
            "currency": 0,
            "powerup": 0,
            "cellType": 0
        },
        {
            "bombValue": 0,
            "currency": 0,
            "powerup": 0,
            "cellType": 0
        },
        {
            "bombValue": 0,
            "currency": 0,
            "powerup": 0,
            "cellType": 0
        },
        {
            "bombValue": 0,
            "currency": 0,
            "powerup": 0,
            "cellType": 0
        },
        {
            "bombValue": 0,
            "currency": 0,
            "powerup": 0,
            "cellType": 0
        },
        {
            "bombValue": 0,
            "currency": 0,
            "powerup": 0,
            "cellType": 0
        },
        {
            "bombValue": 0,
            "currency": 0,
            "powerup": 0,
            "cellType": 0
        },
        {
            "bombValue": 0,
            "currency": 0,
            "powerup": 0,
            "cellType": 0
        },
        {
            "bombValue": 0,
            "currency": 0,
            "powerup": 0,
            "cellType": 0
        },
        {
            "bombValue": 0,
            "currency": 0,
            "powerup": 0,
            "cellType": 0
        },
        {
            "bombValue": 0,
            "currency": 0,
            "powerup": 0,
            "cellType": 0
        },
        {
            "bombValue": 0,
            "currency": 0,
            "powerup": 0,
            "cellType": 0
        },
        {
            "bombValue": 0,
            "currency": 0,
            "powerup": 0,
            "cellType": 0
        },
        {
            "bombValue": 0,
            "currency": 0,
            "powerup": 0,
            "cellType": 0
        },
        {
            "bombValue": 0,
            "currency": 0,
            "powerup": 0,
            "cellType": 0
        },
        {
            "bombValue": 0,
            "currency": 0,
            "powerup": 0,
            "cellType": 0
        },
        {
            "bombValue": 0,
            "currency": 0,
            "powerup": 0,
            "cellType": 0
        },
        {
            "bombValue": 0,
            "currency": 0,
            "powerup": 0,
            "cellType": 0
        },
        {
            "bombValue": 0,
            "currency": 0,
            "powerup": 0,
            "cellType": 0
        },
        {
            "bombValue": 0,
            "currency": 0,
            "powerup": 0,
            "cellType": 0
        },
        {
            "bombValue": 0,
            "currency": 0,
            "powerup": 0,
            "cellType": 0
        },
        {
            "bombValue": 0,
            "currency": 0,
            "powerup": 0,
            "cellType": 0
        },
        {
            "bombValue": 0,
            "currency": 0,
            "powerup": 0,
            "cellType": 0
        },
        {
            "bombValue": 0,
            "currency": 0,
            "powerup": 0,
            "cellType": 0
        },
        {
            "bombValue": 0,
            "currency": 0,
            "powerup": 0,
            "cellType": 0
        },
        {
            "bombValue": 0,
            "currency": 0,
            "powerup": 0,
            "cellType": 0
        },
        {
            "bombValue": 0,
            "currency": 0,
            "powerup": 0,
            "cellType": 0
        },
        {
            "bombValue": 0,
            "currency": 0,
            "powerup": 0,
            "cellType": 0
        },
        {
            "bombValue": 0,
            "currency": 0,
            "powerup": 0,
            "cellType": 0
        },
        {
            "bombValue": 0,
            "currency": 0,
            "powerup": 0,
            "cellType": 0
        },
        {
            "bombValue": 0,
            "currency": 0,
            "powerup": 0,
            "cellType": 0
        },
        {
            "bombValue": 0,
            "currency": 0,
            "powerup": 0,
            "cellType": 0
        },
        {
            "bombValue": 0,
            "currency": 0,
            "powerup": 0,
            "cellType": 0
        },
        {
            "bombValue": 0,
            "currency": 0,
            "powerup": 0,
            "cellType": 0
        },
        {
            "bombValue": 0,
            "currency": 0,
            "powerup": 0,
            "cellType": 0
        },
        {
            "bombValue": 0,
            "currency": 0,
            "powerup": 0,
            "cellType": 0
        },
        {
            "bombValue": 0,
            "currency": 0,
            "powerup": 0,
            "cellType": 0
        },
        {
            "bombValue": 0,
            "currency": 0,
            "powerup": 0,
            "cellType": 0
        },
        {
            "bombValue": 0,
            "currency": 0,
            "powerup": 0,
            "cellType": 0
        },
        {
            "bombValue": 0,
            "currency": 0,
            "powerup": 0,
            "cellType": 0
        },
        {
            "bombValue": 0,
            "currency": 0,
            "powerup": 0,
            "cellType": 0
        },
        {
            "bombValue": 0,
            "currency": 0,
            "powerup": 0,
            "cellType": 0
        },
        {
            "bombValue": 0,
            "currency": 0,
            "powerup": 0,
            "cellType": 0
        },
        {
            "bombValue": 0,
            "currency": 0,
            "powerup": 0,
            "cellType": 0
        },
        {
            "bombValue": 0,
            "currency": 0,
            "powerup": 0,
            "cellType": 0
        },
        {
            "bombValue": 0,
            "currency": 0,
            "powerup": 0,
            "cellType": 0
        }
    ]
}